{
  "artifactGenerations" : [ ],
  "artifactId" : "my_project",
  "groupId" : "package1",
  "metamodelDependencies" : [ ],
  "projectDependencies" : [ ],
  "projectId" : "44300439",
  "projectStructureVersion" : {
    "extensionVersion" : 2,
    "version" : 12
  }
}